<?xml version="1.0" encoding="utf-8"?>
<!-- Generator: Adobe Illustrator 19.0.1, SVG Export Plug-In . SVG Version: 6.00 Build 0)  -->
<svg version="1.1" id="Слой_1" xmlns="http://www.w3.org/2000/svg" xmlns:xlink="http://www.w3.org/1999/xlink" x="0px" y="0px"
	 viewBox="0 0 71 59" style="enable-background:new 0 0 71 59;" xml:space="preserve">
<style type="text/css">
	.st0{display:none;fill-rule:evenodd;clip-rule:evenodd;fill:#127dff;}
	.st1{display:none;}
	.st2{display:inline;}
	.st3{fill-rule:evenodd;clip-rule:evenodd;fill:#127dff;}
</style>
<path class="st0" d="M73.5,11v8c0,0-0.1,2-6,2c-7.2,0-7-4-7-4h-3c0,0,0.5,4-6,4c-7,0-6-4-6-4h-3c0,0,0.6,4.1-6,4c-6.7,0-6-4-6-4h-3
	c0,0,0.7,4-6,4c-6.9,0-6-4-6-4v-2H3.8c-0.3,0.1-0.7,0.2-0.8,0.3C2.6,15.7,2.1,16,1.5,16c-0.9,0-1.7-0.6-1.9-1.4
	c-0.1-0.2-1.1,0.3-1.1-0.6c0-0.9,1.1-0.6,1.2-0.8C0,12.5,0.7,12,1.5,12c0.6,0,1.1,0.2,1.4,0.6c0.1,0.1,0.6,0.3,1,0.4h11.6
	c0,0-0.3-3.1,1-6c1.2-2.6,4-5,4-5h48c0,0,2.6,2.5,4,5C73.6,8.9,73.5,11,73.5,11z M4.5,38c0,0,0-4.8,0-6.9c0-0.1-1.2-0.3-1-0.1
	c0,0-0.8-1.5,4.5-1.5c1.8,0,3.5,0.1,3.5,0.5c0,0.4-1,1.6-1,4c0,1.2,0.9,2.7,1,4c0.3,2.7,0,3,0,3s-0.8,0.3-1,1c-0.3,1.2,0,3,0,3h-2
	v-3c0,0-1.5,0.5-2,1c-1,0.9-1.6,2-3,2c-1.3,0-2,0-2,0s-2.1-0.5-3-1c-1.1-0.5-1-1-1-1s2.2-0.7,4-2C3.2,39.8,4.5,38,4.5,38z M4.5,16h1
	v3h-1V16z M10.5,16h1v3h-1V16z M3.5,28c0,0-1.5-1.3-2-4c-0.5-2.7,3-3,3-3v-1h1v1h5v-1h1v1c0,0,2.4,0.3,1.9,3.4
	c-0.2,1.3-1.9,3.6-1.9,3.6H3.5z M71.5,57h-34V33c0,0-3.6-2-7-2c-3.1,0-6,2-6,2v24h-7V24h54V57z M64.5,33c0,0-4.5-2-9-2
	c-4.5,0-9,2-9,2v12h18V33z M65.5,47h-20v2h20V47z"/>
<g class="st1">
	<g class="st2">
		<path class="st3" d="M2.5,27.5h22c0.6,0,1-0.4,1-1v-2c0-0.6-0.4-1-1-1h-22c-0.6,0-1,0.4-1,1v2C1.5,27.1,1.9,27.5,2.5,27.5z
			 M19.5,2.5h30c0.6,0,1-0.4,1-1v-3c0-0.6-0.4-1-1-1h-30c-0.6,0-1,0.4-1,1v3C18.5,2.1,18.9,2.5,19.5,2.5z M68.5,55.5v-21h-25l6-3v-2
			h11l6,4l2-1l-7-6h-12v-22h-30v17h8v17h-3v-9h-22v26h-1v6h68v-6H68.5z M11.5,52.5h-4v-4h4V52.5z M11.5,45.5h-4v-4h4V45.5z
			 M11.5,37.5h-4v-4h4V37.5z M19.5,52.5h-4v-4h4V52.5z M19.5,45.5h-4v-4h4V45.5z M19.5,37.5h-4v-4h4V37.5z M27.5,17.5h-3v-9h3V17.5z
			 M35.5,33.5h-3v-25h3V33.5z M40.5,8.5h3v19h-3V8.5z M48.5,52.5h-4v-4h4V52.5z M48.5,43.5h-4v-4h4V43.5z M55.5,52.5h-4v-4h4V52.5z
			 M55.5,43.5h-4v-4h4V43.5z M63.5,52.5h-4v-4h4V52.5z M63.5,43.5h-4v-4h4V43.5z"/>
	</g>
</g>
<g class="st1">
	<g class="st2">
		<path class="st3" d="M51.9,7.5c3.6-1.3,9.2-1.3,12-3c3.8-2.4,3-7,3-7s-2.1,2.7-6,4c-3.7,1.2-9.1,1.1-12,2.7
			c-6.7,3.8-6.1,8.3-6,8.3C42.9,12.5,46.2,9.6,51.9,7.5z M60.9,43.5l-2-26h-4l-2,26h-6l-2-27h-3l-3,27h-7v11h-4l-7-46h1v-6h-4v-5
			l-1-1h-3l-1,1v5h-4v6h1v1h-1l-7,45h-3v8h73v-12l-6-7H60.9z M11.9,11.5h6l1,3l-8,7L11.9,11.5z M19.9,29.5l-7-5l6-5L19.9,29.5z
			 M9.9,27.5l7,5l-8,6L9.9,27.5z M20.9,34.5l1,10h-14L20.9,34.5z M6.9,54.5v-6h16l1,6H6.9z M55.9,13.5c0,0,2.6-2.1,6-3
			c2.5-0.7,5.7-0.1,7-1c4.6-3.1,3-7,3-7s-0.7,1.4-3,3c-2,1.3-6.7,1.6-9,3C56.6,10.5,55.9,13.5,55.9,13.5z"/>
	</g>
</g>
<g>
	<g>
		<path class="st3" d="M49,54h-7c0,0,2.7-1,3-5c0.3-3.7-1.7-10.3-3-13c-2.9-6.3-11-6-11-6s-3.6,4-7,4c-3.1,0-6-4-6-4s-5.5,0.9-8,3
			c-3.4,2.8-4,7-4,7h18l2,14H1c-0.6,0-1,0.4-1,1v3c0,0.6,0.4,1,1,1h48c0.6,0,1-0.4,1-1v-3C50,54.4,49.6,54,49,54z M70,41h-4
			c0,0,1.8-1.7,2-4c0.2-2.1-1.1-4.7-1.1-4.7S65.9,28.6,65,27c-1.8-3.3-5-5-7-5c-2,0-1.7,3-4,3c-1.9,0-3,0-3,0s-1.5,0.5-3,0
			c-1.9-0.7,0.1-3.1-4-3c-1.8,0-3.8,5.1-2,7c2.3,2.5,9,2,9,2s5.4-0.2,6,1c1.5,3.4,1,9,2,9h-9c-0.6,0-1,0.4-1,1v2c0,0.6,0.4,1,1,1h20
			c0.6,0,1-0.4,1-1v-2C71,41.4,70.6,41,70,41z M44,20c2.2,0,4,0,4,0s0.4-0.9,0-2c-0.6-1.4-2-3-2-3v-5c0,0,1.4-0.4,2-1
			c0.8-0.8,1-2,1-2h1c0,0,0.9,1.2,2,2c0.8,0.6,2,1,2,1h3v5c0,0-3,3.5-2,5c1,1.5,6,1,6,1s0.3-5.9,0-10c-0.2-2.2-1-4-1-4s-0.1-1.7-1-3
			c-1.5-2.2-4-3.1-4.1-3.1C54.4,0.9,53.6,0,53,0c-0.8,0-1.5,0.8-2.3,0.8c-1,0-2,0.1-2.7,0.2c-1.1,0.2-2.4,1-2.8,1.4
			c-0.5,0.5-0.9,1-1.2,1.6c-1.5,3.3-2,8-2,8S41.8,20,44,20z M20,23c-0.3-1.1-1.5-1.8-2-3c-0.9-2.3-1-5-1-5s3.6-0.3,7-2
			c2.4-1.2,5-4,5-4s1,1.2,2,2c0.9,0.7,2,1,2,1s0.3,2.6,0,5c-0.2,2.1-1,4-1,4s-4.3,2.4-3,4c1.1,1.4,8,2,8,2L36,8c0,0-1.6-4-5-6
			c-2.5-1.5-7-1-7-1l-1-1l-2,1c0,0-3.6,1.4-5,3c-2,2.3-2,5-2,5s0,12.7,0,16.1c0,0.6-1,2.9-1,2.9l7-2C20,26,20.4,24.5,20,23z"/>
	</g>
</g>
<g class="st1">
	<g class="st2">
		<path class="st3" d="M36-2.5l-33,21h65L36-2.5z M35,4.5l-16,10l-1-1l17-11l18,12l-1,1L35,4.5z M63,26.5v-6H8v6l3,2v18l-3,2v6h55
			v-6l-3-2v-18L63,26.5z M25,46.5l-3,1v2h-1v-2l-3-1v-18l3-3h1l3,3V46.5z M39,46.5l-3,1v2h-1v-2l-3-1v-18l3-3h1l3,3V46.5z M53,46.5
			l-3,1v2h-1v-2l-3-1v-18l3-3h1l3,3V46.5z M4,61.5h63v-5H4V61.5z"/>
	</g>
</g>
</svg>
