<?xml version="1.0" encoding="utf-8"?>
<!-- Generator: Adobe Illustrator 19.0.1, SVG Export Plug-In . SVG Version: 6.00 Build 0)  -->
<svg version="1.1" id="Слой_1" xmlns="http://www.w3.org/2000/svg" xmlns:xlink="http://www.w3.org/1999/xlink" x="0px" y="0px"
	 viewBox="0 0 319 157.8" style="enable-background:new 0 0 319 157.8;" xml:space="preserve">
<style type="text/css">
	.st0{fill-rule:evenodd;clip-rule:evenodd;fill:#C6C8CE;}
	.st1{fill-rule:evenodd;clip-rule:evenodd;fill:#AC957A;}
	.st2{fill-rule:evenodd;clip-rule:evenodd;fill:#FFFFFF;}
	.st3{fill-rule:evenodd;clip-rule:evenodd;fill:#E3E4E5;}
	.st4{fill-rule:evenodd;clip-rule:evenodd;fill:#DC1B4F;}
	.st5{fill-rule:evenodd;clip-rule:evenodd;fill:#F0B61A;}
	.st6{fill-rule:evenodd;clip-rule:evenodd;fill:#78C4A6;}
	.st7{fill-rule:evenodd;clip-rule:evenodd;fill:#858893;}
	.st8{fill-rule:evenodd;clip-rule:evenodd;fill:#83694D;}
	.st9{fill-rule:evenodd;clip-rule:evenodd;fill:#F9D1AA;}
	.st10{fill-rule:evenodd;clip-rule:evenodd;fill:#323335;}
	.st11{fill-rule:evenodd;clip-rule:evenodd;fill:#636671;}
	.st12{fill-rule:evenodd;clip-rule:evenodd;fill:#9F9F9F;}
	.st13{fill-rule:evenodd;clip-rule:evenodd;fill:#F4F8FB;}
	.st14{fill-rule:evenodd;clip-rule:evenodd;fill:#B9BBC3;}
	.st15{fill-rule:evenodd;clip-rule:evenodd;fill:#94765A;}
	.st16{fill-rule:evenodd;clip-rule:evenodd;fill:#B39471;}
	.st17{fill-rule:evenodd;clip-rule:evenodd;fill:none;}
	.st18{fill:none;}
	.st19{fill-rule:evenodd;clip-rule:evenodd;fill:#589255;}
	.st20{fill-rule:evenodd;clip-rule:evenodd;fill:#D24A43;}
	.st21{fill-rule:evenodd;clip-rule:evenodd;fill:#3C5F42;}
	.st22{fill-rule:evenodd;clip-rule:evenodd;fill:#99C45A;}
	.st23{fill-rule:evenodd;clip-rule:evenodd;fill:#74B87A;}
	.st24{fill-rule:evenodd;clip-rule:evenodd;fill:#68A99B;}
	.st25{fill-rule:evenodd;clip-rule:evenodd;fill:#C94441;}
	.st26{fill:#636671;}
	.st27{fill-rule:evenodd;clip-rule:evenodd;fill:#E78C39;}
	.st28{fill-rule:evenodd;clip-rule:evenodd;fill:#EB7102;}
	.st29{fill:#EB7102;}
	.st30{fill:#E78C39;}
	.st31{fill:#FFFFFF;}
</style>
<path id="стол" class="st0" d="M0.4,140.7h318.2c0.2,0,0.4,0.2,0.4,0.4v0.8c0,0.2-0.2,0.4-0.4,0.4H0.4c-0.2,0-0.4-0.2-0.4-0.4
	v-0.8C0,140.9,0.2,140.7,0.4,140.7z"/>
<g id="монитор">
	<path class="st1" d="M207.6,63.4h-87.4c-2.3,0-4.2,1.9-4.2,4.2v47.1h95.8V67.6C211.8,65.3,209.9,63.4,207.6,63.4z"/>
	<path class="st2" d="M137.9,70.1h52.5c2.1,0,3.8,1.7,3.8,3.8v45.8c0,2.1-1.7,3.8-3.8,3.8h-52.5c-2.1,0-3.8-1.7-3.8-3.8V73.9
		C134.1,71.8,135.8,70.1,137.9,70.1z"/>
	<path class="st3" d="M137.9,70.1h52.5c2.1,0,3.8,1.7,3.8,3.8v1.7h-60.1v-1.7C134.1,71.8,135.8,70.1,137.9,70.1z"/>
	<g>
		<path class="st4" d="M189.6,72.2c0.5,0,0.8,0.4,0.8,0.8c0,0.5-0.4,0.8-0.8,0.8s-0.8-0.4-0.8-0.8C188.7,72.6,189.1,72.2,189.6,72.2
			z"/>
		<path class="st5" d="M186.2,72.2c0.5,0,0.8,0.4,0.8,0.8c0,0.5-0.4,0.8-0.8,0.8s-0.8-0.4-0.8-0.8C185.3,72.6,185.7,72.2,186.2,72.2
			z"/>
		<path class="st6" d="M182.8,72.2c0.5,0,0.8,0.4,0.8,0.8c0,0.5-0.4,0.8-0.8,0.8s-0.8-0.4-0.8-0.8C182,72.6,182.4,72.2,182.8,72.2z"
			/>
	</g>
	<g>
		<path class="st7" d="M142.1,72.6h2.9c0.2,0,0.4,0.2,0.4,0.4c0,0.2-0.2,0.4-0.4,0.4h-2.9c-0.2,0-0.4-0.2-0.4-0.4
			C141.6,72.8,141.8,72.6,142.1,72.6z"/>
		<path class="st7" d="M137,72.6h2.9c0.2,0,0.4,0.2,0.4,0.4c0,0.2-0.2,0.4-0.4,0.4H137c-0.2,0-0.4-0.2-0.4-0.4
			C136.6,72.8,136.8,72.6,137,72.6z"/>
	</g>
	<path class="st3" d="M211.8,114.7v9.7c0,2.3-1.9,4.2-4.2,4.2h-87.4c-2.3,0-4.2-1.9-4.2-4.2v-9.7H211.8z"/>
</g>
<g id="человек">
	<path class="st8" d="M180.7,89.3c-0.2-0.6-1.2-1.4-2.1-2.5c-0.8-1.1-1.6-2.5-2.5-3.4c-1.3-1.1-2.5-1.7-2.5-1.7l2.5-1.7
		c0,0-2.1-1.7-5.1-1.7c-4.6,0-10.9,1.7-10.9,1.7s0.2-0.8,0.4-1.3c0.4-0.7,0.8-1.3,0.8-1.3s-2.4-0.1-3.4,0.8c-0.8,0.8-2,1.6-3,2.9
		c-0.9,1.3-1.6,3.1-2.5,4.2c-0.9,1.1-1.9,1.5-2.5,2.1c-0.6,0.6-0.8,1.3-0.8,1.3l0.9,10.9l0.4,5h29c0,0,0,0,0,0
		c0-0.2,0.3-2.3,0.6-4.9C180.5,95.8,181,90.4,180.7,89.3z"/>
	<g>
		<path class="st9" d="M183.7,102.5c0,1-0.5,1.8-1.3,2.3h-2.9c0,0,0,0,0,0c0-0.2,0.3-2.3,0.6-4.9c0.3-0.1,0.6-0.2,0.9-0.2
			C182.4,99.8,183.7,101,183.7,102.5z"/>
		<path class="st9" d="M150.5,104.8h-1.7c-0.8-0.5-1.3-1.3-1.3-2.3c0-1.4,1.1-2.6,2.5-2.7L150.5,104.8z"/>
	</g>
	<g>
		<path class="st10" d="M196.2,151.9l7.3-1.2c8.1-1.1-1-19.6-1-19.6L196.2,151.9z"/>
		<path class="st10" d="M134.2,151.9l-7.3-1.2c-8.1-1.1,1-19.6,1-19.6L134.2,151.9z"/>
	</g>
</g>
<g id="стул">
	<path class="st11" d="M197.6,157.7l0.8-8.2c0.4-3.7-1.9-6.8-5.1-6.8h-55.7c-3.2,0-5.5,3.1-5.1,6.8l0.8,8.2L197.6,157.7z"/>
	<path class="st12" d="M198.6,104.6h-66.4c-3.8,0-6.5,3.6-6.1,8l3.2,33.4c0.3,3.6,3.3,6.5,6.7,6.5h58.7c3.3,0,6.3-2.9,6.7-6.5
		l3.3-33.4C205.1,108.2,202.4,104.6,198.6,104.6z"/>
	<path class="st13" d="M167.7,126c0,3,2.4,5.4,5.4,5.5c-1.1,2.9-3.9,5-7.3,5c-4.3,0-7.8-3.5-7.8-7.8c0-4.3,3.5-7.8,7.8-7.8
		c1.4,0,2.6,0.3,3.7,1C168.4,122.9,167.7,124.4,167.7,126z"/>
</g>
<g id="фонарь">
	<g>
		<path class="st14" d="M291.3,115.5h6.3c0,0,0.4-0.4,0.4-0.8c0-0.5-0.4-1-0.4-1s-1.9-1.8-2.7-1.9c0,0,0-0.8-0.4-0.8
			c-0.4,0-0.4,0.8-0.4,0.8c-1,0.1-2.7,1.9-2.7,1.9s-0.4,0.6-0.4,1C290.8,115.2,291.3,115.5,291.3,115.5z"/>
		<path class="st14" d="M294.2,118.9h0.4c0.2,0,0.4,0.2,0.4,0.4v16.4c0,0.2-0.2,0.4-0.4,0.4h-0.4c-0.2,0-0.4-0.2-0.4-0.4v-16.4
			C293.8,119.1,294,118.9,294.2,118.9z"/>
		<path class="st14" d="M293.4,120.6h2.1c0.2,0,0.4,0.2,0.4,0.4c0,0.2-0.2,0.4-0.4,0.4h-2.1c-0.2,0-0.4-0.2-0.4-0.4
			C292.9,120.7,293.1,120.6,293.4,120.6z"/>
		<path class="st14" d="M293.8,134.4h1.3c0.2,0,0.4,0.2,0.4,0.4s-0.2,0.4-0.4,0.4h-1.3c-0.2,0-0.4-0.2-0.4-0.4
			S293.6,134.4,293.8,134.4z"/>
		<path class="st14" d="M295,135.3h-1.3c-0.7,0-1.3,0.6-1.3,1.3v4.2h3.8v-4.2C296.3,135.8,295.7,135.3,295,135.3z"/>
	</g>
	<path class="st2" d="M296.7,115.5h-4.6c0,0,0,0.8,0,1.9c0,1,0.8,1.9,1.9,1.9h0.8c1,0,1.9-0.8,1.9-1.9
		C296.7,116.4,296.7,115.5,296.7,115.5z"/>
</g>
<g id="фонарь_1_">
	<g>
		<path class="st14" d="M20.6,118.9H21c0.2,0,0.4,0.2,0.4,0.4v16.4c0,0.2-0.2,0.4-0.4,0.4h-0.4c-0.2,0-0.4-0.2-0.4-0.4v-16.4
			C20.2,119.1,20.4,118.9,20.6,118.9z"/>
		<g>
			<path class="st14" d="M17.7,115.5H24c0,0,0.4-0.4,0.4-0.8c0-0.5-0.4-1-0.4-1s-1.9-1.8-2.7-1.9c0,0,0-0.8-0.4-0.8
				c-0.4,0-0.4,0.8-0.4,0.8c-1,0.1-2.7,1.9-2.7,1.9s-0.4,0.6-0.4,1C17.2,115.2,17.7,115.5,17.7,115.5z"/>
			<path class="st14" d="M19.8,120.6h2.1c0.2,0,0.4,0.2,0.4,0.4c0,0.2-0.2,0.4-0.4,0.4h-2.1c-0.2,0-0.4-0.2-0.4-0.4
				C19.3,120.7,19.5,120.6,19.8,120.6z"/>
			<path class="st14" d="M20.2,134.4h1.3c0.2,0,0.4,0.2,0.4,0.4s-0.2,0.4-0.4,0.4h-1.3c-0.2,0-0.4-0.2-0.4-0.4
				S19.9,134.4,20.2,134.4z"/>
			<path class="st14" d="M21.4,135.3h-1.3c-0.7,0-1.3,0.6-1.3,1.3v4.2h3.8v-4.2C22.7,135.8,22.1,135.3,21.4,135.3z"/>
		</g>
	</g>
	<path class="st2" d="M23.1,115.5h-4.6c0,0,0,0.8,0,1.9c0,1,0.8,1.9,1.9,1.9h0.8c1,0,1.9-0.8,1.9-1.9
		C23.1,116.4,23.1,115.5,23.1,115.5z"/>
</g>
<g id="кофе">
	<path class="st2" d="M236.2,123.1h-10.6c-0.7,0-1.3,0.7-1.2,1.5l1.1,15.1c0,0.6,0.6,1,1.1,1h8.5c0.6,0,1.1-0.5,1.1-1l1.1-15.1
		C237.5,123.8,237,123.1,236.2,123.1z"/>
	<path class="st15" d="M237.5,125.6h-13c-0.7,0-1.3,0.6-1.3,1.3v0.8c0,0.7,0.6,1.3,1.3,1.3h13c0.7,0,1.3-0.6,1.3-1.3v-0.8
		C238.7,126.2,238.2,125.6,237.5,125.6z"/>
	<path class="st16" d="M237.5,125.6l0-1c0.1-0.8-0.5-1.5-1.2-1.5h-10.6c-0.7,0-1.3,0.7-1.2,1.5l0,1H237.5z"/>
	<path class="st17" d="M229.9,137.1c-0.3,0-0.5,0.2-0.5,0.5c0,0.3,0.2,0.5,0.5,0.5s0.5-0.2,0.5-0.5
		C230.4,137.3,230.2,137.1,229.9,137.1z M227.4,134.2c0,0,0.1-0.1,0.2-0.1c0.1,0,0.2,0,0.3,0c0.1,0,0.2,0,0.3,0
		c0.1,0,0.1,0.1,0.2,0.1c0,0,0.1,0.1,0.1,0.2c0,0.1,0,0.1,0,0.2h0.7c0-0.2,0-0.3-0.1-0.4c-0.1-0.1-0.2-0.3-0.3-0.4
		c-0.1-0.1-0.3-0.2-0.4-0.2c-0.2,0-0.3-0.1-0.5-0.1c-0.2,0-0.4,0-0.5,0.1c-0.2,0-0.3,0.1-0.4,0.2c-0.1,0.1-0.2,0.2-0.3,0.3
		c-0.1,0.1-0.1,0.3-0.1,0.4c0,0.2,0,0.3,0.1,0.4c0.1,0.1,0.1,0.2,0.3,0.3c0.1,0.1,0.2,0.2,0.4,0.2c0.1,0.1,0.3,0.1,0.5,0.2
		c0.1,0,0.3,0.1,0.3,0.1c0.1,0,0.2,0.1,0.2,0.1c0,0,0.1,0.1,0.1,0.1c0,0,0,0.1,0,0.2c0,0.1,0,0.1,0,0.2c0,0-0.1,0.1-0.1,0.1
		c0,0-0.1,0.1-0.2,0.1c-0.1,0-0.2,0-0.2,0c-0.1,0-0.2,0-0.3,0c-0.1,0-0.2-0.1-0.2-0.1c-0.1,0-0.1-0.1-0.1-0.2c0-0.1,0-0.2,0-0.3
		h-0.7c0,0.1,0,0.3,0.1,0.4c0,0.1,0.1,0.2,0.2,0.3c0.1,0.1,0.1,0.2,0.2,0.2c0.1,0.1,0.2,0.1,0.3,0.2c0.1,0,0.2,0.1,0.3,0.1
		c0.1,0,0.2,0,0.4,0c0.2,0,0.4,0,0.5-0.1c0.2,0,0.3-0.1,0.4-0.2c0.1-0.1,0.2-0.2,0.3-0.3s0.1-0.3,0.1-0.4c0-0.1,0-0.3-0.1-0.4
		c0-0.1-0.1-0.2-0.2-0.3c-0.1-0.1-0.2-0.2-0.4-0.3c-0.2-0.1-0.3-0.1-0.5-0.2c-0.2-0.1-0.4-0.1-0.5-0.2c-0.1-0.1-0.2-0.2-0.2-0.3
		c0-0.1,0-0.1,0-0.2C227.3,134.3,227.4,134.3,227.4,134.2z"/>
	<path class="st16" d="M227.8,131.1c-1.1,0-2.1,0.4-2.8,1.1l0.5,6.6c0.7,0.4,1.5,0.7,2.3,0.7c2.3,0,4.2-1.9,4.2-4.2
		C232,132.9,230.1,131.1,227.8,131.1z M227.4,134.8c0.1,0.1,0.3,0.2,0.5,0.2c0.2,0.1,0.4,0.1,0.5,0.2c0.1,0.1,0.3,0.2,0.4,0.3
		c0.1,0.1,0.2,0.2,0.2,0.3c0.1,0.1,0.1,0.3,0.1,0.4c0,0.2,0,0.3-0.1,0.4s-0.1,0.2-0.3,0.3c-0.1,0.1-0.2,0.1-0.4,0.2
		c-0.2,0-0.3,0.1-0.5,0.1c-0.1,0-0.2,0-0.4,0c-0.1,0-0.2-0.1-0.3-0.1c-0.1,0-0.2-0.1-0.3-0.2c-0.1-0.1-0.2-0.1-0.2-0.2
		c-0.1-0.1-0.1-0.2-0.2-0.3c0-0.1-0.1-0.2-0.1-0.4h0.7c0,0.1,0,0.2,0,0.3c0,0.1,0.1,0.1,0.1,0.2c0.1,0,0.1,0.1,0.2,0.1
		c0.1,0,0.2,0,0.3,0c0.1,0,0.2,0,0.2,0c0.1,0,0.1,0,0.2-0.1c0,0,0.1-0.1,0.1-0.1c0,0,0-0.1,0-0.2c0-0.1,0-0.1,0-0.2
		c0,0,0-0.1-0.1-0.1c0,0-0.1-0.1-0.2-0.1c-0.1,0-0.2-0.1-0.3-0.1c-0.2,0-0.3-0.1-0.5-0.2c-0.1-0.1-0.3-0.1-0.4-0.2
		c-0.1-0.1-0.2-0.2-0.3-0.3c-0.1-0.1-0.1-0.3-0.1-0.4c0-0.1,0-0.3,0.1-0.4c0.1-0.1,0.2-0.2,0.3-0.3c0.1-0.1,0.3-0.2,0.4-0.2
		c0.2,0,0.3-0.1,0.5-0.1c0.2,0,0.4,0,0.5,0.1c0.2,0.1,0.3,0.1,0.4,0.2c0.1,0.1,0.2,0.2,0.3,0.4c0.1,0.1,0.1,0.3,0.1,0.4h-0.7
		c0-0.1,0-0.2,0-0.2c0-0.1-0.1-0.1-0.1-0.2c0,0-0.1-0.1-0.2-0.1c-0.1,0-0.2,0-0.3,0c-0.1,0-0.2,0-0.3,0c-0.1,0-0.1,0.1-0.2,0.1
		c0,0-0.1,0.1-0.1,0.1c0,0,0,0.1,0,0.2C227.3,134.6,227.3,134.8,227.4,134.8z M229.9,138.1c-0.3,0-0.5-0.2-0.5-0.5
		c0-0.3,0.2-0.5,0.5-0.5s0.5,0.2,0.5,0.5C230.4,137.9,230.2,138.1,229.9,138.1z"/>
	<path class="st18" d="M228.4,136.4c0,0-0.1,0.1-0.1,0.1c0,0-0.1,0.1-0.2,0.1c-0.1,0-0.2,0-0.2,0c-0.1,0-0.2,0-0.3,0
		c-0.1,0-0.2-0.1-0.2-0.1c-0.1,0-0.1-0.1-0.1-0.2c0-0.1-0.1-0.2-0.1-0.3h-0.7c0,0.1,0,0.3,0.1,0.4c0,0.1,0.1,0.2,0.2,0.3
		c0.1,0.1,0.1,0.2,0.2,0.2c0.1,0.1,0.2,0.1,0.3,0.2c0.1,0,0.2,0.1,0.3,0.1c0.1,0,0.2,0,0.4,0c0.2,0,0.4,0,0.5-0.1
		c0.2,0,0.3-0.1,0.4-0.2c0.1-0.1,0.2-0.2,0.3-0.3c0.1-0.1,0.1-0.3,0.1-0.4c0-0.1,0-0.3-0.1-0.4c-0.1-0.1-0.1-0.2-0.2-0.3
		c-0.1-0.1-0.2-0.2-0.4-0.2c-0.1-0.1-0.3-0.1-0.5-0.2c-0.2-0.1-0.4-0.1-0.5-0.2c-0.1-0.1-0.2-0.2-0.2-0.3c0-0.1,0-0.1,0-0.2
		c0-0.1,0.1-0.1,0.1-0.1c0,0,0.1-0.1,0.2-0.1c0.1,0,0.2,0,0.2,0c0.1,0,0.2,0,0.3,0c0.1,0,0.1,0.1,0.2,0.1c0,0,0.1,0.1,0.1,0.2
		c0,0.1,0,0.1,0,0.2h0.7c0-0.2,0-0.3-0.1-0.4c-0.1-0.1-0.1-0.2-0.3-0.3c-0.1-0.1-0.3-0.2-0.4-0.2c-0.2-0.1-0.3-0.1-0.5-0.1
		c-0.2,0-0.4,0-0.5,0.1c-0.2,0-0.3,0.1-0.4,0.2c-0.1,0.1-0.2,0.2-0.3,0.3c-0.1,0.1-0.1,0.3-0.1,0.4c0,0.2,0,0.3,0.1,0.4
		c0.1,0.1,0.1,0.2,0.3,0.3c0.1,0.1,0.2,0.2,0.4,0.2c0.1,0.1,0.3,0.1,0.5,0.2c0.1,0,0.3,0.1,0.3,0.1c0.1,0,0.2,0.1,0.2,0.1
		s0.1,0.1,0.1,0.1c0,0,0,0.1,0,0.2C228.4,136.3,228.4,136.3,228.4,136.4z"/>
</g>
<g id="кактус">
	<path class="st19" d="M99.6,126c0,0-1.6-15.7,0.4-15.6c2,0.2,2.1,14.7,2.1,14.7L99.6,126z"/>
	<path class="st20" d="M105.9,131.5H94.6c-0.2,0-0.4,0.3-0.3,0.7l2,8.7c0,0.2,0.2,0.3,0.4,0.3h7.4c0.2,0,0.3-0.1,0.4-0.3l1.8-8.7
		C106.3,131.8,106.1,131.5,105.9,131.5z"/>
	<path class="st21" d="M101.3,129c0,0-1.5-5.6-3.8-10.5c-2.3-4.9-4.8-9.5-5.5-9.2c-0.7,0.2,1.1,3.3,2.1,7.1
		c1.4,5.7,2.9,12.6,2.9,12.6H101.3z"/>
	<path class="st22" d="M98.3,129c0,0-2.9-6.3-5.9-9.7c-1.5-1.7-4.6-2.4-5-1.7c-0.5,0.7,3.3,3.1,5,6.3c1.4,2.7,2.1,5.5,2.1,5.5
		L98.3,129z"/>
	<path class="st23" d="M102.6,129.4c0,0,2.1-4.6,4.6-8.8c2.1-3.5,5.7-5.7,5-6.7c-0.6-1-4,1.9-7.1,5.5c-3.7,4.2-7.1,10.1-7.1,10.1
		H102.6z"/>
	<path class="st24" d="M105.5,129.4c0,0,0.4-1.3,1.3-2.9c1.3-2.4,3.2-5.4,2.9-5.5c-0.4-0.1-2.8,1.8-4.6,3.8
		c-1.7,1.8-2.5,4.6-2.5,4.6H105.5z"/>
	<path class="st25" d="M92.9,128.5h14.7c0.2,0,0.4,0.2,0.4,0.4v2.9c0,0.2-0.2,0.4-0.4,0.4H92.9c-0.2,0-0.4-0.2-0.4-0.4V129
		C92.5,128.7,92.7,128.5,92.9,128.5z"/>
</g>
<g id="эксковатор">
	<g>
		<path class="st11" d="M95.4,88.6h17.2c0.2,0,0.4,0.2,0.4,0.4v18.9c0,0.2-0.2,0.4-0.4,0.4H95.4c-0.2,0-0.4-0.2-0.4-0.4V89
			C95,88.8,95.2,88.6,95.4,88.6z"/>
		<path class="st2" d="M95.8,88.2h16c0.2,0,0.4,0.2,0.4,0.4v16.8c0,0.2-0.2,0.4-0.4,0.4h-16c-0.2,0-0.4-0.2-0.4-0.4V88.6
			C95.4,88.4,95.6,88.2,95.8,88.2z"/>
		<g>
			<g>
				<path class="st26" d="M96.8,89.9h2v0.5h-2V89.9z"/>
				<path class="st26" d="M96.8,90.9h4v0.5h-4V90.9z"/>
				<path class="st26" d="M96.8,93.2h5.3v0.5h-5.3V93.2z"/>
				<path class="st26" d="M96.8,94.4h9.1v0.5h-9.1V94.4z"/>
				<path class="st26" d="M96.8,95.7h9.1v0.5h-9.1V95.7z"/>
				<path class="st26" d="M96.8,96.9h9.1v0.5h-9.1V96.9z"/>
				<path class="st26" d="M96.8,103.1h4.5v0.5h-4.5V103.1z"/>
				<path class="st26" d="M96.8,104.1h1v0.5h-1V104.1z"/>
				<path class="st26" d="M102.6,93.2h2.3v0.5h-2.3V93.2z"/>
			</g>
			<g>
				<path class="st26" d="M105.4,103.9l-0.5-0.2c0,0,0.3-0.6,0.7-1c0.4-0.5,0.9-0.8,0.9-0.9l0.3,0.5c0,0-0.5,0.4-0.8,0.8
					C105.7,103.4,105.4,103.9,105.4,103.9z M108,103.5c0,0-0.1,0-0.1,0c-0.4-0.1-0.7-0.7-0.6-1.1c0-0.3,0.2-0.6,0.3-0.9
					c0.1-0.2,0.2-0.5,0.2-0.6c0-0.1-0.1-0.3-0.2-0.3c-0.2,0-0.6,0.1-1.3,0.7c-0.9,0.8-1.8,2-1.8,2L104,103c0-0.1,0.9-1.3,1.9-2.1
					c0.5-0.4,1.2-0.9,1.7-0.8c0.4,0.1,0.7,0.4,0.7,0.9c0,0.2-0.1,0.5-0.3,0.8c-0.1,0.2-0.3,0.5-0.3,0.7c0,0.2,0.1,0.5,0.2,0.5
					c0,0,0.3-0.1,0.4-0.3c0.1-0.1,0.2-0.3,0.2-0.4c0.1-0.2,0.2-0.5,0.5-0.4c0.3,0,0.4,0.4,0.4,0.7c0,0,0.1-0.1,0.1-0.1
					c0.1-0.1,0.1-0.2,0.2-0.3c0-0.1,0.1-0.1,0.1-0.2c0.1-0.1,0.3-0.2,0.4-0.1c0.3,0.1,0.5,0.4,0.5,0.9c0,0.4-0.2,0.8-0.2,0.8
					l-0.5-0.3c0,0,0.1-0.2,0.1-0.5c0-0.1,0-0.2-0.1-0.2c0,0.1-0.1,0.2-0.1,0.3c-0.1,0.2-0.3,0.4-0.5,0.5l-0.2-0.1l0,0l-0.1,0.3
					l-0.1-0.1l0-0.1c-0.1-0.1-0.1-0.2-0.1-0.4c0,0.1-0.1,0.1-0.1,0.2C108.7,103.3,108.3,103.5,108,103.5z"/>
			</g>
		</g>
		<g>
			<path class="st11" d="M105.1,65.1l-0.8,0l-0.4,18.5l0.8,0L105.1,65.1z"/>
			<path class="st11" d="M103.5,85l-0.2-0.3l-5.5,3.8l0.2,0.3L103.5,85z"/>
			<path class="st11" d="M105.2,85.1l-0.3,0.3l4.2,3.4l0.3-0.3L105.2,85.1z"/>
		</g>
	</g>
	<g>
		<path class="st2" d="M64.3,122.9l-1.6-12l-0.1-0.4H52.1v14.2l10.3,1.3c-0.1,0.1-0.2,0.3-0.3,0.4h0l0.3-0.4l1.8-2.9L64.3,122.9z"/>
		<path class="st7" d="M49.6,124.8L49.6,124.8l-6.7-0.9l-4.2-0.4v8H50L49.6,124.8z"/>
		<g>
			<g>
				<path class="st27" d="M62.5,126c-0.1,0.1-0.2,0.3-0.3,0.4h0L62.5,126L62.5,126z M60,130.2c-0.2,0-0.3,0.2-0.3,0.4v0.1
					c-0.1,0.2-0.3,0.5-0.4,0.7h0.4l0.1-0.2l0.6-1.1h-0.3C60.1,130.2,60,130.2,60,130.2z M57.6,130.2h-2.5c-0.2,0-0.4,0.2-0.4,0.4
					v0.4c0,0.2,0.2,0.4,0.4,0.4h2.5c0.2,0,0.4-0.2,0.4-0.4v-0.4C58,130.4,57.8,130.2,57.6,130.2z M53,130.2h-2.5
					c-0.2,0-0.4,0.2-0.4,0.4v0.4c0,0.2,0.2,0.4,0.4,0.4H53c0.2,0,0.4-0.2,0.4-0.4v-0.4C53.4,130.4,53.2,130.2,53,130.2z M52.1,124.7
					l-2.5-0.3v0.5l2.5,0.3V124.7z M49.6,131.5H50l-0.4-6.6V131.5z"/>
				<g>
					<path class="st27" d="M84.1,112L102,69.1c-0.4,0.1-0.8,0.1-1.2,0.1c-0.1,0-0.1,0-0.2,0l-1.1,2.6v-2.8c-0.1,0-0.2-0.1-0.3-0.1
						c-0.1,0-0.1,0-0.1,0c-0.1-0.1-0.3-0.1-0.4-0.2l0,0.1v-0.1c-0.2-0.1-0.3-0.2-0.5-0.3l-2.4,0.9l1.2-2.1c-0.2-0.3-0.4-0.7-0.5-1.1
						l-24.3,43.4l0,0.1l-1.1,2h-1.7c-1.2,0-2.1,0.9-2.1,2.1v0.4c0,0.8,0.4,1.4,1,1.8c-1.3,2.3-2.6,4.5-4,6.8l0,0.2l-1.8,2.9
						l-0.3,0.4h0c0.1-0.2,0.2-0.3,0.3-0.4l-10.3-1.3v0.5l-2.5-0.3l0.4,6.6h0.4c-0.2,0-0.4-0.2-0.4-0.4v-0.4c0-0.2,0.2-0.4,0.4-0.4
						H53c0.2,0,0.4,0.2,0.4,0.4v0.4c0,0.2-0.2,0.4-0.4,0.4h2.1c-0.2,0-0.4-0.2-0.4-0.4v-0.4c0-0.2,0.2-0.4,0.4-0.4h2.5
						c0.2,0,0.4,0.2,0.4,0.4v0.4c0,0.2-0.2,0.4-0.4,0.4h1.7c0.1-0.2,0.3-0.5,0.4-0.7v-0.1c0-0.2,0.1-0.4,0.3-0.4c0,0,0.1,0,0.1,0
						h2.5c0.2,0,0.4,0.2,0.4,0.4v0.4c0,0.2-0.2,0.4-0.4,0.4h0.8l8.8-15.1H79l-6.2,13.9h0.3c0.2,0,0.4,0.2,0.4,0.4v0.4
						c0,0.2-0.2,0.4-0.4,0.4h2.5c-0.2,0-0.4-0.2-0.4-0.4v-0.4c0-0.2,0.2-0.4,0.4-0.4h1.4l6.2-13.9c1.2,0,2.1-0.9,2.1-2.1v-0.4
						C85.3,113,84.8,112.3,84.1,112z M88,90.9l-3.4,6.9l-0.5-6.2l3.7-1.2L88,90.9L88,90.9z M88.1,91.5l0.9,4.5l-4,1.7L88.1,91.5z
						 M85.2,106l-0.5-7.2L89,97L85.2,106z M89.7,95.3l-1-5l0.1-0.2l3.6-1.2L89.7,95.3z M89.3,89l2.5-5.1l0.6,4.1L89.3,89z
						 M96.2,79.9L96,75.4l2.5-1L96.2,79.9z M98.8,73.4l-2.2,0.9l2.2-4.5V73.4z M98.6,69.3L96,74.5l-0.2-4.2L98.6,69.3z M93.1,87.2
						l-0.6-4.4l2.9-1.1L93.1,87.2z M95.4,80.9l-2.5,0.9l2.4-4.9L95.4,80.9z M95,70.9l0.2,3.9l-3,1.2L95,70.9z M95.2,75.7l0,0.4v0
						l-2.8,5.8l-0.7-4.8L95.2,75.7z M91,78.1l0.6,4.2l-3.7,1.3L91,78.1z M91.7,83.1L91.7,83.1l-2.9,6.1l-0.3,0.1l-0.9-4.6L91.7,83.1
						z M84,90.7l2.9-5.2l0.8,4L84,90.7L84,90.7L84,90.7z M84.4,106.9l-4.3,1l3.8-7.8L84.4,106.9z M83.3,91.9l0.5,6.4l-5.3,2.2
						L83.3,91.9z M83.9,99.2L83.9,99.2L83.9,99.2L83.9,99.2l-4.2,8.5l-1.4-6.2L83.9,99.2z M77.6,102.3l1.4,5.9l-5.3,1.2L77.6,102.3z
						 M72.3,111.7l0.8-1.4l6-1.3l-1.4,2.8H72.3z M78.2,111.7l1.1-2.2l0.5,2.2H78.2z M82.8,111.7h-2.2l-0.7-3l4.6-1L82.8,111.7z"/>
					<path class="st27" d="M75.7,130.2c-0.2,0-0.4,0.2-0.4,0.4v0.4c0,0.2,0.2,0.4,0.4,0.4h0.8l0.6-1.3H75.7z M73.1,130.2h-0.3
						l-0.6,1.3h0.8c0.2,0,0.4-0.2,0.4-0.4v-0.4C73.6,130.4,73.4,130.2,73.1,130.2z"/>
					<path class="st27" d="M62.6,130.2h-2.5c0,0-0.1,0-0.1,0c-0.1,0.2-0.2,0.3-0.3,0.5c-0.1,0.2-0.3,0.5-0.4,0.7h3.4
						c0.2,0,0.4-0.2,0.4-0.4v-0.4C63,130.4,62.9,130.2,62.6,130.2z M62.5,126l1.8-2.9l0-0.2C63.7,123.9,63.1,125,62.5,126
						c-0.1,0.1-0.2,0.3-0.3,0.4h0L62.5,126z"/>
				</g>
				<path class="st27" d="M44.6,106.3h18.9c1.2,0,2.1,0.9,2.1,2.1v0.4c0,1.2-0.9,2.1-2.1,2.1H44.6c-1.2,0-2.1-0.9-2.1-2.1v-0.4
					C42.4,107.2,43.4,106.3,44.6,106.3z"/>
			</g>
			<g>
				<path class="st27" d="M77.8,135.7h-8c-0.2,0-0.4,0.2-0.4,0.4c0,0.2,0.2,0.4,0.4,0.4h8c0.2,0,0.4-0.2,0.4-0.4
					C78.2,135.9,78,135.7,77.8,135.7z"/>
				<path class="st27" d="M67.7,135.7H63c-0.2,0-0.4,0.2-0.4,0.4c0,0.2,0.2,0.4,0.4,0.4h4.6c0.2,0,0.4-0.2,0.4-0.4
					C68.1,135.9,67.9,135.7,67.7,135.7z"/>
				<path class="st27" d="M41.6,135.7h-5.1c-0.2,0-0.4,0.2-0.4,0.4c0,0.2,0.2,0.4,0.4,0.4h5.1c0.2,0,0.4-0.2,0.4-0.4
					C42,135.9,41.8,135.7,41.6,135.7z"/>
				<path class="st27" d="M44.6,135.7h-1.3c-0.2,0-0.4,0.2-0.4,0.4c0,0.2,0.2,0.4,0.4,0.4h1.3c0.2,0,0.4-0.2,0.4-0.4
					C45,135.9,44.8,135.7,44.6,135.7z"/>
				<path class="st27" d="M60.9,135.7H48.3c-0.2,0-0.4,0.2-0.4,0.4c0,0.2,0.2,0.4,0.4,0.4h12.6c0.2,0,0.4-0.2,0.4-0.4
					C61.4,135.9,61.2,135.7,60.9,135.7z"/>
				<path class="st27" d="M41.6,135.7h-5.1c-0.2,0-0.4,0.2-0.4,0.4c0,0.2,0.2,0.4,0.4,0.4h5.1c0.2,0,0.4-0.2,0.4-0.4
					C42,135.9,41.8,135.7,41.6,135.7z M44.6,135.7h-1.3c-0.2,0-0.4,0.2-0.4,0.4c0,0.2,0.2,0.4,0.4,0.4h1.3c0.2,0,0.4-0.2,0.4-0.4
					C45,135.9,44.8,135.7,44.6,135.7z M60.9,135.7H48.3c-0.2,0-0.4,0.2-0.4,0.4c0,0.2,0.2,0.4,0.4,0.4h12.6c0.2,0,0.4-0.2,0.4-0.4
					C61.4,135.9,61.2,135.7,60.9,135.7z M67.7,135.7H63c-0.2,0-0.4,0.2-0.4,0.4c0,0.2,0.2,0.4,0.4,0.4h4.6c0.2,0,0.4-0.2,0.4-0.4
					C68.1,135.9,67.9,135.7,67.7,135.7z M77.8,135.7h-8c-0.2,0-0.4,0.2-0.4,0.4c0,0.2,0.2,0.4,0.4,0.4h8c0.2,0,0.4-0.2,0.4-0.4
					C78.2,135.9,78,135.7,77.8,135.7z"/>
			</g>
		</g>
		<path class="st11" d="M83.6,134.5l-1.3-2.2c-0.1-0.2-0.4-0.3-0.6-0.2l-0.4,0.2c-0.1,0.1-0.2,0.2-0.2,0.4c-0.8-0.8-1.9-1.3-3.2-1.3
			h0.2c0.2,0,0.4-0.2,0.4-0.4v-0.4c0-0.2-0.2-0.4-0.4-0.4h-2.5c-0.2,0-0.4,0.2-0.4,0.4v0.4c0,0.2,0.2,0.4,0.4,0.4h-2.5
			c0.2,0,0.4-0.2,0.4-0.4v-0.4c0-0.2-0.2-0.4-0.4-0.4h-2.5c-0.2,0-0.4,0.2-0.4,0.4v0.4c0,0.2,0.2,0.4,0.4,0.4h-2.5
			c0.2,0,0.4-0.2,0.4-0.4v-0.4c0-0.2-0.2-0.4-0.4-0.4h-2.5c-0.2,0-0.4,0.2-0.4,0.4v0.4c0,0.2,0.2,0.4,0.4,0.4h-2.9
			c0.2,0,0.4-0.2,0.4-0.4v-0.4c0-0.2-0.2-0.4-0.4-0.4h-2.5c0,0-0.1,0-0.1,0c-0.2,0-0.3,0.2-0.3,0.4v0.4c0,0.1,0,0.2,0.1,0.3
			c0.1,0.1,0.2,0.2,0.3,0.2h-2.5c0.2,0,0.4-0.2,0.4-0.4v-0.4c0-0.2-0.2-0.4-0.4-0.4h-2.5c-0.2,0-0.4,0.2-0.4,0.4v0.4
			c0,0.2,0.2,0.4,0.4,0.4H53c0.2,0,0.4-0.2,0.4-0.4v-0.4c0-0.2-0.2-0.4-0.4-0.4h-2.5c-0.2,0-0.4,0.2-0.4,0.4v0.4
			c0,0.2,0.2,0.4,0.4,0.4h-2.9c0.2,0,0.4-0.2,0.4-0.4v-0.4c0-0.2-0.2-0.4-0.4-0.4H45c-0.2,0-0.4,0.2-0.4,0.4v0.4
			c0,0.2,0.2,0.4,0.4,0.4h-2.1c0.2,0,0.4-0.2,0.4-0.4v-0.4c0-0.2-0.2-0.4-0.4-0.4h-2.5c-0.2,0-0.4,0.2-0.4,0.4v0.4
			c0,0.2,0.2,0.4,0.4,0.4h-2.9c0.2,0,0.4-0.2,0.4-0.4v-0.4c0-0.2-0.2-0.4-0.4-0.4h-2.5c-0.2,0-0.4,0.2-0.4,0.4v0.4
			c0,0.2,0.2,0.4,0.4,0.4h0.2c-0.8,0-1.6,0.2-2.3,0.6c0-0.1,0-0.3-0.2-0.4l-0.3-0.2c-0.2-0.1-0.5-0.1-0.6,0.1l-1.5,2.1
			c-0.1,0.2-0.1,0.5,0.1,0.6l0.3,0.3c0,0,0.1,0.1,0.2,0.1c-0.1,0.3-0.2,0.6-0.2,0.9c0,0-0.1,0-0.1,0l-0.4,0.1
			c-0.2,0-0.4,0.3-0.3,0.5l0.5,2.5c0,0.2,0.3,0.4,0.5,0.3l0.4-0.1c0.1,0,0.1,0,0.2-0.1c0.8,1.2,2.2,2,3.7,2H78
			c0.6,0,1.1-0.1,1.6-0.3l0.1,0.2c0.1,0.2,0.4,0.3,0.6,0.2l2.3-1.1c0.2-0.1,0.3-0.4,0.2-0.6l-0.2-0.4c-0.1-0.2-0.4-0.3-0.6-0.2
			l-0.3,0.1c0.4-0.7,0.7-1.5,0.7-2.3v-0.4c0-0.4,0-0.8-0.1-1.1l0.3,0.4c0.1,0.2,0.4,0.3,0.6,0.1l0.4-0.2
			C83.6,135,83.7,134.8,83.6,134.5z M41.6,136.5h-5.1c-0.2,0-0.4-0.2-0.4-0.4c0-0.2,0.2-0.4,0.4-0.4h5.1c0.2,0,0.4,0.2,0.4,0.4
			C42,136.3,41.8,136.5,41.6,136.5z M44.6,136.5h-1.3c-0.2,0-0.4-0.2-0.4-0.4c0-0.2,0.2-0.4,0.4-0.4h1.3c0.2,0,0.4,0.2,0.4,0.4
			C45,136.3,44.8,136.5,44.6,136.5z M60.9,136.5H48.3c-0.2,0-0.4-0.2-0.4-0.4c0-0.2,0.2-0.4,0.4-0.4h12.6c0.2,0,0.4,0.2,0.4,0.4
			C61.4,136.3,61.2,136.5,60.9,136.5z M67.7,136.5H63c-0.2,0-0.4-0.2-0.4-0.4c0-0.2,0.2-0.4,0.4-0.4h4.6c0.2,0,0.4,0.2,0.4,0.4
			C68.1,136.3,67.9,136.5,67.7,136.5z M77.8,136.5h-8c-0.2,0-0.4-0.2-0.4-0.4c0-0.2,0.2-0.4,0.4-0.4h8c0.2,0,0.4,0.2,0.4,0.4
			C78.2,136.3,78,136.5,77.8,136.5z"/>
		<path class="st28" d="M44.6,110.9l-1.7,13l6.7,0.9l2.5,0.3v-14.3H44.6z"/>
		<g>
			<g>
				<path class="st28" d="M104.2,82.7c-0.9,0-1.7,0.8-1.7,1.7s0.8,1.7,1.7,1.7c0.9,0,1.7-0.8,1.7-1.7S105.2,82.7,104.2,82.7z
					 M104.2,85.3c-0.5,0-0.9-0.4-0.9-0.9s0.4-0.9,0.9-0.9c0.5,0,0.9,0.4,0.9,0.9S104.7,85.3,104.2,85.3z"/>
			</g>
			<path class="st28" d="M100.9,60c-2.6,0-4.6,2.1-4.6,4.6c0,0.5,0.1,1,0.3,1.5c0.1,0.4,0.3,0.7,0.5,1.1c0.3,0.5,0.7,0.9,1.2,1.2
				c0.2,0.1,0.3,0.2,0.5,0.3c0,0,0,0,0,0c0.1,0.1,0.2,0.1,0.4,0.2c0,0,0.1,0,0.1,0c0.1,0,0.2,0.1,0.3,0.1c0.3,0.1,0.7,0.2,1.1,0.2
				c0,0,0.1,0,0.2,0c0.4,0,0.8,0,1.2-0.1c2-0.5,3.5-2.3,3.5-4.5C105.5,62.1,103.4,60,100.9,60z M100.9,67.2c-1.4,0-2.5-1.1-2.5-2.5
				c0-1.4,1.1-2.5,2.5-2.5c1.4,0,2.5,1.1,2.5,2.5C103.4,66,102.3,67.2,100.9,67.2z"/>
		</g>
	</g>
</g>
<g id="кран">
	<path class="st17" d="M235.4,79.4c-0.5,0-0.8,0.4-0.8,0.8v5.9c0,0.5,0.4,0.8,0.8,0.8h3.4v-7.6H235.4z M210.6,79.4h-3.4v7.6h3.4
		c0.5,0,0.8-0.4,0.8-0.8v-5.9C211.4,79.7,211,79.4,210.6,79.4z"/>
	<path class="st2" d="M235.4,79.4c-0.5,0-0.8,0.4-0.8,0.8v5.9c0,0.5,0.4,0.8,0.8,0.8h3.4v-7.6H235.4z M210.6,79.4h-3.4v7.6h3.4
		c0.5,0,0.8-0.4,0.8-0.8v-5.9C211.4,79.7,211,79.4,210.6,79.4z"/>
	<g>
		<g>
			<path class="st27" d="M307.9,29.7l-0.5-0.7l-16.8,13.4l0.5,0.7L307.9,29.7z"/>
			<path class="st27" d="M291.1,28.6l-0.5,0.7l17.2,13.9l0.5-0.7L291.1,28.6z"/>
			<path class="st27" d="M290.7,29.7l-0.5-0.7l-16.8,13.4l0.5,0.7L290.7,29.7z"/>
			<path class="st27" d="M273.9,28.6l-0.5,0.7l17.2,13.9l0.5-0.7L273.9,28.6z"/>
			<path class="st27" d="M250.8,29.7l-0.5-0.7l-16.8,13.4l0.5,0.7L250.8,29.7z"/>
			<path class="st27" d="M233.9,28.6l-0.5,0.7l17.2,13.9l0.5-0.7L233.9,28.6z"/>
			<path class="st27" d="M233.9,29.7l-0.5-0.7l-16.8,13.4l0.5,0.7L233.9,29.7z"/>
			<path class="st27" d="M217.1,28.6l-0.5,0.7l17.2,13.9l0.5-0.7L217.1,28.6z"/>
			<path class="st27" d="M217.1,29.7l-0.5-0.7l-16.8,13.4l0.5,0.7L217.1,29.7z"/>
			<path class="st27" d="M200.3,28.6l-0.5,0.7L217,43.1l0.5-0.7L200.3,28.6z"/>
			<path class="st27" d="M200.3,29.7l-0.5-0.7L183,42.5l0.5,0.7L200.3,29.7z"/>
			<path class="st27" d="M183.5,28.6l-0.5,0.7l17.2,13.9l0.5-0.7L183.5,28.6z"/>
			<path class="st27" d="M183.5,29.7L183,29l-16.8,13.4l0.5,0.7L183.5,29.7z"/>
			<path class="st27" d="M166.7,28.6l-0.5,0.7l17.2,13.9l0.5-0.7L166.7,28.6z"/>
			<path class="st27" d="M166.7,29.7l-0.5-0.7l-16.8,13.4l0.5,0.7L166.7,29.7z"/>
			<path class="st27" d="M149.9,28.6l-0.5,0.7l17.2,13.9l0.5-0.7L149.9,28.6z"/>
			<path class="st27" d="M308.5,28.9h-0.8v14.3h0.8V28.9z"/>
			<path class="st27" d="M291.3,28.9h-0.8v14.3h0.8V28.9z"/>
			<path class="st27" d="M234.5,28.9h-0.8v14.3h0.8V28.9z"/>
			<path class="st27" d="M217.3,28.9h-0.8v14.3h0.8V28.9z"/>
			<path class="st27" d="M200.9,28.9h-0.8v14.3h0.8V28.9z"/>
			<path class="st27" d="M183.7,28.9h-0.8v14.3h0.8V28.9z"/>
			<path class="st27" d="M167.3,28.9h-0.8v14.3h0.8V28.9z"/>
		</g>
		<g>
			<path class="st11" d="M270.7,12.3L270.7,12.3l-1-0.5c0,0.3,0.1,0.7,0.1,1l0.9,0.4v0L305,28.9l0.3-0.8L270.7,12.3z"/>
			<path class="st11" d="M265.5,11.5l-81.1,17l0.2,0.8l80.8-16.9l0.9-0.2c0.1-0.3,0.1-0.6,0.2-0.9L265.5,11.5z"/>
			<path class="st11" d="M220.2,45.7h-0.8v16.4h0.8V45.7z"/>
			<path class="st11" d="M226.5,46.2h-0.8v16.4h0.8V46.2z"/>
			<path class="st11" d="M250.1,46.2v-0.8H149.2v0.8H250.1z"/>
			<path class="st11" d="M149.2,46.2h0.8V28.5h-0.8V46.2z"/>
		</g>
		<g>
			<path class="st29" d="M314,28.5H149.6c-0.2,0-0.4,0.2-0.4,0.4v2.5h-3.4c-0.2,0-0.4,0.2-0.4,0.4v8.4c0,0.2,0.2,0.4,0.4,0.4h3.4
				v2.5c0,0.2,0.2,0.4,0.4,0.4H314c0.2,0,0.4-0.2,0.4-0.4V28.9C314.4,28.7,314.2,28.5,314,28.5z M149.2,39.8h-2.9v-7.5h2.9V39.8z
				 M313.5,42.8H150.1V29.4h163.5V42.8z"/>
		</g>
		<path class="st28" d="M250.5,26H285c0.2,0,0.4,0.2,0.4,0.4v19.3c0,0.2-0.2,0.4-0.4,0.4h-34.5c-0.2,0-0.4-0.2-0.4-0.4V26.4
			C250.1,26.2,250.3,26,250.5,26z"/>
		<g>
			<path class="st11" d="M235.8,93.2c0.5,0,0.9-0.1,1.3-0.3c-0.1,1.6-1.4,2.8-2.9,2.8h-22.7c-1.6,0-2.9-1.3-2.9-2.9v-0.1
				c0.5,0.3,1.1,0.5,1.7,0.5H235.8z"/>
			<path class="st11" d="M238.7,71h-31.5c0-1.6,1.3-2.9,2.9-2.9h25.6C237.4,68,238.7,69.3,238.7,71z"/>
			<path class="st11" d="M240.4,80.2v5.9c0,0.5-0.4,0.8-0.8,0.8h-4.2c-0.5,0-0.8-0.4-0.8-0.8v-5.9c0-0.5,0.4-0.8,0.8-0.8h4.2
				C240,79.4,240.4,79.7,240.4,80.2z"/>
			<path class="st11" d="M211.4,80.2v5.9c0,0.5-0.4,0.8-0.8,0.8h-4.2c-0.5,0-0.8-0.4-0.8-0.8v-5.9c0-0.5,0.4-0.8,0.8-0.8h4.2
				C211,79.4,211.4,79.7,211.4,80.2z"/>
		</g>
		<g>
			<path class="st27" d="M278.2,21.4h-2.1v-1.3c0-0.9-0.8-1.7-1.7-1.7h-13.9c-0.9,0-1.7,0.8-1.7,1.7v1.3h-0.9
				c-2.1,0-3.8,1.7-3.8,3.8v21c0,2.1,1.7,3.8,3.8,3.8h0.9v77.3h-2.1c-0.2,0-0.4,0.2-0.4,0.4v3.4c0,0.2,0.2,0.4,0.4,0.4h21
				c0.2,0,0.4-0.2,0.4-0.4v-3.4c0-0.2-0.2-0.4-0.4-0.4h-1.3V50h1.7c2.1,0,3.8-1.7,3.8-3.8v-21C282,23.1,280.3,21.4,278.2,21.4z
				 M259.7,51l7.5,7.9l-7.5,7.7V51z M260.7,66.8l7.1-7.3l6.9,7.3H260.7z M275.1,67.6l-7.3,7.7l-7.5-7.7H275.1z M259.7,68.2l7.5,7.7
				l-7.5,7.9V68.2z M266.2,127.3l1.4-1.4l1.5,1.4H266.2z M275.7,127.3h-5.3l-2.1-2l6.9-6.9l-0.6-0.6l-6.9,6.9l-6.3-6.1l-0.6,0.6
				l6.3,6.1l-2,2h-5.3v-25l7.5,7.5l-6.6,7.1l0.6,0.6l6.6-7.1l7.8,7.8V127.3z M274.8,101.6l-7,7.5l-7.5-7.5H274.8z M260.7,100.8
				l7.2-7.4l7.2,7.4H260.7z M275.7,117l-7.3-7.3l7.3-7.9V117z M275.7,100.2l-7.2-7.4l7.2-7.4V100.2z M275.7,84.8l-0.3-0.3l-7.5,7.7
				l-7.5-7.7l-0.6,0.6l7.5,7.7l-7.6,7.8V84.4l0.3,0.3l7.8-8.2l7.9,8.1V84.8z M275.7,83.4l-7.3-7.5l7.3-7.7V83.4z M275.7,66.5
				l-7.3-7.7l7.3-7.5V66.5z M275.7,50.2l-7.9,8.1l-7.9-8.3h15.8V50.2z"/>
			<path class="st27" d="M276.6,117.9v0.6l0.3-0.3L276.6,117.9z"/>
		</g>
		<path class="st30" d="M271.4,18.4h-0.9c-0.1-1.2-0.4-3.4-0.7-5.6c0-0.3-0.1-0.7-0.1-1c-0.5-3.1-1-6-1.6-6c-0.5,0-1.1,2.6-1.7,5.5
			c-0.1,0.3-0.1,0.6-0.2,0.9c-0.4,2.4-0.8,4.9-1,6.2h-0.8c0.3-2.4,0.6-4.3,0.9-6c0.1-0.3,0.1-0.6,0.2-0.9c1.2-6.6,2-6.6,2.6-6.6
			c0.6,0,1.5,0,2.5,7.3v0c0.1,0.3,0.1,0.6,0.1,1v0C271,14.7,271.2,16.4,271.4,18.4z"/>
		<g>
			<path class="st28" d="M256.4,82.7h23.1c0.2,0,0.4,0.2,0.4,0.4v3.4c0,0.2-0.2,0.4-0.4,0.4h-23.1c-0.2,0-0.4-0.2-0.4-0.4v-3.4
				C256,82.9,256.1,82.7,256.4,82.7z"/>
			<g>
				<path class="st28" d="M255.5,130.6h23.5c2.3,0,4.2,1.9,4.2,4.2v5.9h-31.9v-5.9C251.3,132.5,253.2,130.6,255.5,130.6z"/>
				<path class="st28" d="M256.4,115.9h23.1c0.2,0,0.4,0.2,0.4,0.4v3.4c0,0.2-0.2,0.4-0.4,0.4h-23.1c-0.2,0-0.4-0.2-0.4-0.4v-3.4
					C256,116.1,256.1,115.9,256.4,115.9z"/>
			</g>
		</g>
	</g>
	<g>
		<path class="st2" d="M234.5,80.2v5.9c0,0.5,0.4,0.8,0.8,0.8h3.4v3.4c0,0.1,0,0.2,0,0.3c0,0.1,0,0.1,0,0.2c0,0.1,0,0.2-0.1,0.3
			c0,0.2-0.1,0.3-0.2,0.5c-0.1,0.1-0.1,0.2-0.2,0.3c0,0,0,0,0,0c-0.1,0.1-0.1,0.2-0.2,0.3c-0.1,0.1-0.2,0.2-0.3,0.3
			c0,0-0.1,0.1-0.1,0.1c-0.1,0.1-0.2,0.1-0.3,0.2c-0.1,0.1-0.2,0.1-0.4,0.2c-0.4,0.2-0.8,0.3-1.3,0.3h-25.6c-0.6,0-1.2-0.2-1.7-0.5
			c-0.3-0.2-0.5-0.5-0.8-0.8c-0.1-0.2-0.2-0.4-0.3-0.6v0c0-0.1-0.1-0.2-0.1-0.3c0-0.1,0-0.2,0-0.2c0-0.1,0-0.1,0-0.2
			c0-0.1,0-0.2,0-0.3v-3.4h3.4c0.5,0,0.8-0.4,0.8-0.8v-5.9c0-0.5-0.4-0.8-0.8-0.8h-3.4V71h31.5v8.4h-3.4
			C234.9,79.4,234.5,79.7,234.5,80.2z"/>
		<path class="st14" d="M223.2,61.3c5.6,0,10.1,4.5,10.1,10.1c0,5.6-4.5,10.1-10.1,10.1s-10.1-4.5-10.1-10.1
			C213.1,65.8,217.6,61.3,223.2,61.3z"/>
		<g>
			<path class="st31" d="M219.3,73.5c0-1.1,0.8-1.9,1.9-1.9h0.5l1.1,2.8c0,0.1,0.2,0.2,0.3,0.2c0.2,0,0.3-0.1,0.4-0.2l1.1-2.8h0.4
				c1.1,0,1.9,0.8,1.9,1.9v3.8h0.8v-3.8c0-1.5-1.2-2.7-2.7-2.7h-3.9c-1.5,0-2.7,1.2-2.7,2.7v3.8h0.8V73.5L219.3,73.5z M223.2,73.2
				l-0.6-1.6h1.2L223.2,73.2z"/>
			<path class="st31" d="M222.8,75h0.8v0.8h-0.8V75z"/>
			<path class="st31" d="M222.8,76.5h0.8v0.8h-0.8V76.5z"/>
			<path class="st31" d="M222.8,70.4h0.8c1.1,0,1.9-0.8,1.9-1.9v-1.1c0-1.1-0.8-1.9-1.9-1.9h-0.8c-1.1,0-1.9,0.8-1.9,1.9v1.1
				C220.9,69.6,221.7,70.4,222.8,70.4z M221.6,67.4c0-0.6,0.5-1.1,1.2-1.1h0.8c0.7,0,1.2,0.5,1.2,1.1v1.1c0,0.6-0.5,1.1-1.2,1.1
				h-0.8c-0.7,0-1.2-0.5-1.2-1.1V67.4z"/>
			<path class="st31" d="M220.5,74.6h0.8v2.7h-0.8V74.6z"/>
			<path class="st31" d="M225.1,74.6h0.8v2.7h-0.8V74.6z"/>
		</g>
		<g>
			<path class="st26" d="M214.1,82.3h2v0.5h-2V82.3z"/>
			<path class="st26" d="M214.1,83.3h4v0.5h-4V83.3z"/>
			<path class="st26" d="M214.1,85.6h5.3v0.5h-5.3V85.6z"/>
			<path class="st26" d="M214.1,86.8h9.1v0.5h-9.1V86.8z"/>
			<path class="st26" d="M214.1,88.1h9.1v0.5h-9.1V88.1z"/>
			<path class="st26" d="M214.1,89.4h9.1v0.5h-9.1V89.4z"/>
			<path class="st26" d="M227.5,82.5h4.5V83h-4.5V82.5z"/>
			<path class="st26" d="M227.5,83.5h1V84h-1V83.5z"/>
			<path class="st26" d="M219.9,85.6h2.3v0.5h-2.3V85.6z"/>
		</g>
	</g>
</g>
</svg>
