<?xml version="1.0" encoding="utf-8"?>
<!-- Generator: Adobe Illustrator 19.0.1, SVG Export Plug-In . SVG Version: 6.00 Build 0)  -->
<svg version="1.1" id="Слой_1" xmlns="http://www.w3.org/2000/svg" xmlns:xlink="http://www.w3.org/1999/xlink" x="0px" y="0px"
	 viewBox="0 0 484 472" style="enable-background:new 0 0 484 472;" xml:space="preserve">
<style type="text/css">
	.st0{fill:#5623fe;}
</style>
<g>
	<g>
		<path class="st0" d="M116.6,48.6H58.5V68h58.2V48.6z M194.2,48.6H136V68h58.2V48.6z M213.5,87.4H58.5v19.4h155.1V87.4z
			 M318.7,205.4c1.7,1.7,3.4,2.6,6,2.6c0.9,0,2.6,0,3.4-0.9c3.4-0.9,5.1-4.3,5.1-7.7v-34.3h125.2c5.1,0,8.6-3.4,8.6-8.6v-120
			c0-5.1-3.4-8.6-8.6-8.6H262V9.7c0-5.8-3.9-9.7-9.7-9.7H19.7C13.9,0,10,3.9,10,9.7v136c0,5.8,3.9,9.7,9.7,9.7h141.5v38.9
			c0,3.9,1.9,7.8,5.8,8.7c1,1,2.9,1,3.9,1c2.9,0,4.8-1,6.8-2.9l45.6-45.7H244v1.1c0,5.1,3.4,8.6,8.6,8.6h25.8L318.7,205.4z
			 M242.6,136h-23.3c-2.9,0-4.8,1-6.8,2.9l-32,32.1v-25.3c0-5.8-3.9-9.7-9.7-9.7H29.4V19.4h213.2V136z M262,145.7V45.1h187.8V148
			H324.7c-5.1,0-8.6,3.4-8.6,8.6v22.3l-28.3-28.3c-1.7-1.7-3.4-2.6-6-2.6h-20C261.9,147.3,262,146.5,262,145.7z M338.3,70.9h-51.5
			V88h51.5V70.9z M407,70.9h-51.5V88H407V70.9z M424.1,105.1H286.9v17.1h137.2V105.1z M422.7,326.5h-87.5
			c-34.1,0-61.3,27.1-61.3,61.2V414h17.5v-26.3c0-24.5,19.3-43.8,43.8-43.8h11.4l24.5,64.8c0.9,2.6,4.4,5.3,7.9,5.3
			c3.5,0,7-2.6,9.6-5.3l24.5-64.8h9.6c24.5,0,43.8,19.3,43.8,43.8V414H484v-26.3C484,353.6,456.9,326.5,422.7,326.5z M379.9,380.7
			l-14-36.8h28L379.9,380.7z M370.2,204c-24.5,0-43.7,19.2-43.7,43.8V274c0,24.5,19.3,43.7,43.7,43.7h17.5
			c24.5,0,43.7-19.2,43.7-43.7v-26.3c0-24.5-19.3-43.8-43.7-43.8H370.2z M414,247.8V274c0,14.9-11.4,26.3-26.3,26.3h-17.5
			c-14.9,0-26.3-11.4-26.3-26.3v-26.3c0-14.9,11.4-26.3,26.3-26.3h17.5C402.6,221.5,414,232.9,414,247.8z M146.6,325H60.4
			C26.7,325,0,351.8,0,385.5V472h17.2v-86.4c0-24.2,19-43.2,43.1-43.2h11.2l24.1,64c0.9,2.6,4.3,5.2,7.8,5.2c3.4,0,6.9-2.6,9.5-5.2
			l24.1-64h9.5c24.1,0,43.1,19,43.1,43.2V472H207v-86.4C207,351.8,180.3,325,146.6,325z M104.4,378.6l-13.8-36.3h27.6L104.4,378.6z
			 M94.9,437.4h17.2v-17.3H94.9V437.4z M94.9,472h17.2v-17.3H94.9V472z M94.9,316.4h17.2c24.2,0,43.1-19,43.1-43.2v-25.9
			c0-24.2-19-43.2-43.1-43.2H94.9c-24.2,0-43.1,19-43.1,43.2v25.9C51.8,297.4,70.7,316.4,94.9,316.4z M69,247.2
			c0-14.7,11.2-25.9,25.9-25.9h17.2c14.7,0,25.9,11.2,25.9,25.9v25.9c0,14.7-11.2,25.9-25.9,25.9H94.9c-14.7,0-25.9-11.2-25.9-25.9
			V247.2z M43.1,472h17.2v-60.5H43.1V472z M146.6,472h17.2v-60.5h-17.2V472z"/>
	</g>
</g>
</svg>
