<?xml version="1.0" encoding="utf-8"?>
<!-- Generator: Adobe Illustrator 19.0.1, SVG Export Plug-In . SVG Version: 6.00 Build 0)  -->
<svg version="1.1" id="Слой_1" xmlns="http://www.w3.org/2000/svg" xmlns:xlink="http://www.w3.org/1999/xlink" x="0px" y="0px"
	 viewBox="0 0 73.3 66" style="enable-background:new 0 0 73.3 66;" xml:space="preserve">
<style type="text/css">
	.st0{display:none;fill-rule:evenodd;clip-rule:evenodd;fill:#127dff;}
	.st1{display:none;}
	.st2{display:inline;}
	.st3{fill-rule:evenodd;clip-rule:evenodd;fill:#127dff;}
</style>
<path class="st0" d="M74.6,14.5v8c0,0-0.1,2-6,2c-7.2,0-7-4-7-4h-3c0,0,0.5,4-6,4c-7,0-6-4-6-4h-3c0,0,0.6,4.1-6,4c-6.7,0-6-4-6-4
	h-3c0,0,0.7,4-6,4c-6.9,0-6-4-6-4v-2H4.9c-0.3,0.1-0.7,0.2-0.8,0.3c-0.4,0.4-0.9,0.7-1.5,0.7c-0.9,0-1.7-0.6-1.9-1.4
	c-0.1-0.2-1.1,0.3-1.1-0.6c0-0.9,1.1-0.6,1.2-0.8c0.3-0.7,1-1.2,1.8-1.2c0.6,0,1.1,0.2,1.4,0.6c0.1,0.1,0.6,0.3,1,0.4h11.6
	c0,0-0.3-3.1,1-6c1.2-2.6,4-5,4-5h48c0,0,2.6,2.5,4,5C74.7,12.4,74.6,14.5,74.6,14.5z M5.6,41.5c0,0,0-4.8,0-6.9
	c0-0.1-1.2-0.3-1-0.1c0,0-0.8-1.5,4.5-1.5c1.8,0,3.5,0.1,3.5,0.5c0,0.4-1,1.6-1,4c0,1.2,0.9,2.7,1,4c0.3,2.7,0,3,0,3s-0.8,0.3-1,1
	c-0.3,1.2,0,3,0,3h-2v-3c0,0-1.5,0.5-2,1c-1,0.9-1.6,2-3,2c-1.3,0-2,0-2,0s-2.1-0.5-3-1c-1.1-0.5-1-1-1-1s2.2-0.7,4-2
	C4.4,43.3,5.6,41.5,5.6,41.5z M5.6,19.5h1v3h-1V19.5z M11.6,19.5h1v3h-1V19.5z M4.6,31.5c0,0-1.5-1.3-2-4c-0.5-2.7,3-3,3-3v-1h1v1h5
	v-1h1v1c0,0,2.4,0.3,1.9,3.4c-0.2,1.3-1.9,3.6-1.9,3.6H4.6z M72.6,60.5h-34v-24c0,0-3.6-2-7-2c-3.1,0-6,2-6,2v24h-7v-33h54V60.5z
	 M65.6,36.5c0,0-4.5-2-9-2c-4.5,0-9,2-9,2v12h18V36.5z M66.6,50.5h-20v2h20V50.5z"/>
<g class="st1">
	<g class="st2">
		<path class="st3" d="M3.6,31h22c0.6,0,1-0.4,1-1v-2c0-0.6-0.4-1-1-1h-22c-0.6,0-1,0.4-1,1v2C2.6,30.6,3.1,31,3.6,31z M20.6,6h30
			c0.6,0,1-0.4,1-1V2c0-0.6-0.4-1-1-1h-30c-0.6,0-1,0.4-1,1v3C19.6,5.6,20.1,6,20.6,6z M69.6,59V38h-25l6-3v-2h11l6,4l2-1l-7-6h-12
			V8h-30v17h8v17h-3v-9h-22v26h-1v6h68v-6H69.6z M12.6,56h-4v-4h4V56z M12.6,49h-4v-4h4V49z M12.6,41h-4v-4h4V41z M20.6,56h-4v-4h4
			V56z M20.6,49h-4v-4h4V49z M20.6,41h-4v-4h4V41z M28.6,21h-3v-9h3V21z M36.6,37h-3V12h3V37z M41.6,12h3v19h-3V12z M49.6,56h-4v-4
			h4V56z M49.6,47h-4v-4h4V47z M56.6,56h-4v-4h4V56z M56.6,47h-4v-4h4V47z M64.6,56h-4v-4h4V56z M64.6,47h-4v-4h4V47z"/>
	</g>
</g>
<g>
	<g>
		<path class="st3" d="M53,11c3.6-1.3,9.2-1.3,12-3c3.8-2.4,3-7,3-7s-2.1,2.7-6,4c-3.7,1.2-9.1,1.1-12,2.7c-6.7,3.8-6.1,8.3-6,8.3
			C44,16,47.3,13.1,53,11z M62,47l-2-26h-4l-2,26h-6l-2-27h-3l-3,27h-7v11h-4l-7-46h1V6h-4V1l-1-1h-3l-1,1v5h-4v6h1v1h-1L3,58H0v8
			h73V54l-6-7H62z M13,15h6l1,3l-8,7L13,15z M21,33l-7-5l6-5L21,33z M11,31l7,5l-8,6L11,31z M22,38l1,10H9L22,38z M8,58v-6h16l1,6H8
			z M57,17c0,0,2.6-2.1,6-3c2.5-0.7,5.7-0.1,7-1c4.6-3.1,3-7,3-7s-0.7,1.4-3,3c-2,1.3-6.7,1.6-9,3C57.7,14,57,17,57,17z"/>
	</g>
</g>
<g class="st1">
	<g class="st2">
		<path class="st3" d="M50.1,57.5h-7c0,0,2.7-1,3-5c0.3-3.7-1.7-10.3-3-13c-2.9-6.3-11-6-11-6s-3.6,4-7,4c-3.1,0-6-4-6-4
			s-5.5,0.9-8,3c-3.4,2.8-4,7-4,7h18l2,14h-25c-0.6,0-1,0.4-1,1v3c0,0.6,0.4,1,1,1h48c0.6,0,1-0.4,1-1v-3
			C51.1,57.9,50.7,57.5,50.1,57.5z M71.1,44.5h-4c0,0,1.8-1.7,2-4c0.2-2.1-1.1-4.7-1.1-4.7s-1.1-3.7-1.9-5.3c-1.8-3.3-5-5-7-5
			c-2,0-1.7,3-4,3c-1.9,0-3,0-3,0s-1.5,0.5-3,0c-1.9-0.7,0.1-3.1-4-3c-1.8,0-3.8,5.1-2,7c2.3,2.5,9,2,9,2s5.4-0.2,6,1
			c1.5,3.4,1,9,2,9h-9c-0.6,0-1,0.4-1,1v2c0,0.6,0.4,1,1,1h20c0.6,0,1-0.4,1-1v-2C72.1,44.9,71.7,44.5,71.1,44.5z M45.1,23.5
			c2.2,0,4,0,4,0s0.4-0.9,0-2c-0.6-1.4-2-3-2-3v-5c0,0,1.4-0.4,2-1c0.8-0.8,1-2,1-2h1c0,0,0.9,1.2,2,2c0.8,0.6,2,1,2,1h3v5
			c0,0-3,3.5-2,5c1,1.5,6,1,6,1s0.3-5.9,0-10c-0.2-2.2-1-4-1-4s-0.1-1.7-1-3c-1.5-2.2-4-3.1-4.1-3.1c-0.5,0-1.3-0.9-1.9-0.9
			c-0.8,0-1.5,0.8-2.3,0.8c-1,0-2,0.1-2.7,0.2c-1.1,0.2-2.4,1-2.8,1.4c-0.5,0.5-0.9,1-1.2,1.6c-1.5,3.3-2,8-2,8S42.9,23.5,45.1,23.5
			z M21.1,26.5c-0.3-1.1-1.5-1.8-2-3c-0.9-2.3-1-5-1-5s3.6-0.3,7-2c2.4-1.2,5-4,5-4s1,1.2,2,2c0.9,0.7,2,1,2,1s0.3,2.6,0,5
			c-0.2,2.1-1,4-1,4s-4.3,2.4-3,4c1.1,1.4,8,2,8,2l-1-19c0,0-1.6-4-5-6c-2.5-1.5-7-1-7-1l-1-1l-2,1c0,0-3.6,1.4-5,3c-2,2.3-2,5-2,5
			s0,12.7,0,16.1c0,0.6-1,2.9-1,2.9l7-2C21.1,29.5,21.5,28,21.1,26.5z"/>
	</g>
</g>
<g class="st1">
	<g class="st2">
		<path class="st3" d="M37.1,1l-33,21h65L37.1,1z M36.1,8l-16,10l-1-1l17-11l18,12l-1,1L36.1,8z M64.1,30v-6h-55v6l3,2v18l-3,2v6h55
			v-6l-3-2V32L64.1,30z M26.1,50l-3,1v2h-1v-2l-3-1V32l3-3h1l3,3V50z M40.1,50l-3,1v2h-1v-2l-3-1V32l3-3h1l3,3V50z M54.1,50l-3,1v2
			h-1v-2l-3-1V32l3-3h1l3,3V50z M5.1,65h63v-5h-63V65z"/>
	</g>
</g>
</svg>
