<?xml version="1.0" encoding="utf-8"?>
<!-- Generator: Adobe Illustrator 19.0.1, SVG Export Plug-In . SVG Version: 6.00 Build 0)  -->
<svg version="1.1" id="Слой_1" xmlns="http://www.w3.org/2000/svg" xmlns:xlink="http://www.w3.org/1999/xlink" x="0px" y="0px"
	 viewBox="0 0 130.9 86" style="enable-background:new 0 0 130.9 86;" xml:space="preserve">
<style type="text/css">
	.st0{fill:#5623fe;}
</style>
<g>
	<g>
		<path class="st0" d="M27.5,17.9H9v3h18.5V17.9z M59.8,23.2H9v3h50.8V23.2z M69.8,28.7H9v3h60.8V28.7z M16,33.8H9v3h7V33.8z
			 M52,39.3H9v3H52V39.3z M27,44.6H9v3h18V44.6z M13.5,50.1H9v3h4.5V50.1z M9,58.4h62.8v-3H9V58.4z M107.2,0c-7.1,0-13.5,3.1-17.8,8
			H5.7C2.6,8,0,10.6,0,13.8v56.6c0,3.2,2.6,5.8,5.7,5.8H36V83h-5.8c-0.8,0-1.5,0.7-1.5,1.5s0.7,1.5,1.5,1.5h50.3
			c0.8,0,1.5-0.7,1.5-1.5S81.4,83,80.6,83h-5.8v-6.9h30.4c3.2,0,5.7-2.6,5.7-5.8V13.8c0-3.2-2.6-5.8-5.7-5.8H92.1
			c3.9-3.7,9.2-6,15.1-6c12,0,21.8,9.7,21.8,21.5c0,0.2,0,0.4,0,0.7l2-0.1c0-0.2,0-0.4,0-0.6C130.9,10.5,120.3,0,107.2,0z M71.8,83
			H39v-6.9h32.8V83z M108,70.4c0,1.5-1.2,2.7-2.7,2.7H5.7c-1.5,0-2.7-1.2-2.7-2.7v-1.7h105V70.4z M105.3,11c1.5,0,2.7,1.2,2.7,2.7
			V45c-0.3,0-0.5,0-0.8,0c-0.6,0-1.3,0-1.9-0.1l0,2c0.6,0.1,1.2,0.1,1.9,0.1c0.3,0,0.5,0,0.8,0v18.7H3V13.8C3,12.3,4.2,11,5.7,11
			h81.3c-1.8,2.9-3.1,6.3-3.5,9.8L78.8,16c-0.2-0.2-0.5-0.3-0.7-0.3c-0.2,0-0.5,0.1-0.7,0.2c-0.4,0.3-0.4,0.9-0.1,1.3l6.1,6.2
			l0.5,0.5l0,0c0,0,0,0,0,0c0.3,0.4,0.9,0.4,1.3,0.1l0.2-0.2l6.6-6.4c0.2-0.2,0.3-0.5,0.3-0.7c0-0.2-0.1-0.5-0.2-0.7
			c-0.3-0.4-0.9-0.4-1.3-0.1l-5.2,5c0.4-3.7,1.8-7.2,3.9-10.1H105.3z M127.9,30l1.9,0.6c0.6-1.7,0.9-3.5,1-5.4l-2,0
			C128.7,26.9,128.4,28.5,127.9,30z M125.4,35.2l1.6,1.2c1-1.4,1.8-3,2.4-4.7l-1.9-0.6C127,32.5,126.3,33.9,125.4,35.2z M121.7,39.5
			l1.4,1.4c1.2-1.1,2.3-2.3,3.3-3.6l-1.6-1.2C123.9,37.4,122.9,38.5,121.7,39.5z M117.4,42.5l0.7,1.9c1.5-0.8,2.9-1.7,4.2-2.7
			l-1.4-1.5C119.8,41.1,118.6,41.9,117.4,42.5z M111.4,44.6l0.2,2c1.9-0.3,3.7-0.9,5.5-1.7l-0.7-1.9
			C114.8,43.7,113.1,44.3,111.4,44.6z M78.2,38.3L77,34h-1.8l2.1,6.3H79l2.1-6.3h-1.8L78.2,38.3z M82.2,33.1v1.4l2-0.6v6.5h1.7v-8.5
			h-0.2L82.2,33.1z M90.5,38.9c-0.1-0.1-0.2-0.1-0.3-0.2c-0.1,0-0.3-0.1-0.4-0.1c-0.1,0-0.3,0-0.4,0.1c-0.1,0-0.2,0.1-0.3,0.2
			c-0.1,0.1-0.1,0.2-0.2,0.3c0,0.1-0.1,0.2-0.1,0.4s0,0.2,0.1,0.4c0,0.1,0.1,0.2,0.2,0.3c0.1,0.1,0.2,0.1,0.3,0.2
			c0.1,0,0.2,0.1,0.4,0.1c0.1,0,0.3,0,0.4-0.1c0.1,0,0.2-0.1,0.3-0.2c0.1-0.1,0.1-0.2,0.2-0.3c0-0.1,0.1-0.2,0.1-0.4s0-0.2-0.1-0.4
			C90.7,39.1,90.6,39,90.5,38.9z M92.2,36.8c0,0.6,0.1,1.2,0.2,1.6c0.1,0.5,0.3,0.8,0.6,1.1c0.3,0.3,0.6,0.5,0.9,0.7
			c0.4,0.1,0.7,0.2,1.2,0.2s0.8-0.1,1.2-0.2c0.4-0.1,0.7-0.4,0.9-0.7c0.3-0.3,0.4-0.7,0.6-1.1c0.1-0.5,0.2-1,0.2-1.6v-1.5
			c0-0.6-0.1-1.2-0.2-1.6c-0.1-0.5-0.3-0.8-0.6-1.1c-0.3-0.3-0.6-0.5-0.9-0.7c-0.4-0.1-0.7-0.2-1.2-0.2c-0.4,0-0.8,0.1-1.2,0.2
			c-0.4,0.1-0.7,0.4-0.9,0.7c-0.3,0.3-0.5,0.7-0.6,1.1c-0.1,0.5-0.2,1-0.2,1.6V36.8z M93.9,35.1c0-0.4,0-0.7,0.1-1s0.1-0.5,0.2-0.6
			c0.1-0.2,0.2-0.3,0.4-0.3c0.1-0.1,0.3-0.1,0.5-0.1s0.4,0,0.5,0.1c0.1,0.1,0.3,0.2,0.4,0.3c0.1,0.2,0.2,0.4,0.2,0.6s0.1,0.6,0.1,1
			v1.9c0,0.4,0,0.7-0.1,1s-0.1,0.5-0.2,0.6s-0.2,0.3-0.4,0.3c-0.1,0.1-0.3,0.1-0.5,0.1s-0.4,0-0.5-0.1c-0.1-0.1-0.3-0.2-0.4-0.3
			C94.1,38.5,94,38.3,94,38c-0.1-0.3-0.1-0.6-0.1-1V35.1z M101.5,40.4h1.7v-8.5H103l-3.5,1.3v1.4l2-0.6V40.4z"/>
	</g>
</g>
</svg>
